Tidy Tuesday
…
As I look at it, I’m wondering if the question variable is necessary. If it’s all the same “How was …” then that’s redudant and can be removed. The time and poll_ID I’m not too interested in.

pizza %>%
  select(question) %>%
  distinct()

## # A tibble: 22 x 1
##    question                          
##    <chr>                             
##  1 How was Williamsburg Pizza?       
##  2 How was Little Italy Pizza?       
##  3 How was Steve's Pizza?            
##  4 How was Girello?                  
##  5 How was 5 Boroughs Pizza?         
##  6 How was Saluggi's?                
##  7 How was Artichoke Basille's Pizza?
##  8 How was Bleecker Street Pizza?    
##  9 How was Joe's Pizza?              
## 10 How was Champion Pizza?           
## # … with 12 more rows

The questions are all the same so I’m just going to remove the variables I’m not interested in.

pizza_clean <- pizza %>%
  select(-c(pollq_id, polla_qid, question, time, latitude, longitude, country, zip, address1))

pizza_clean %>%
  select(name) %>%
  distinct()

## # A tibble: 22 x 1
##    name                     
##    <chr>                    
##  1 Williamsburg Pizza       
##  2 Little Italy Pizza       
##  3 Steve's Pizza            
##  4 Girello                  
##  5 5 Boroughs Pizza         
##  6 Saluggi's                
##  7 Artichoke Basille's Pizza
##  8 Bleecker Street Pizza    
##  9 Joe's Pizza              
## 10 Champion Pizza           
## # … with 12 more rows
…
